module gitlab.com/ds_2/jobs-completion-operator

go 1.16

require (
	github.com/go-logr/logr v0.3.0
	github.com/onsi/ginkgo v1.14.1
	github.com/onsi/gomega v1.10.2
	github.com/opsgenie/opsgenie-go-sdk-v2 v1.2.8
	k8s.io/api v0.20.2
	k8s.io/apimachinery v0.20.2
	k8s.io/client-go v0.20.2
	sigs.k8s.io/controller-runtime v0.8.3
)
